<?xml version="1.0" encoding="utf-8"?>
<!-- Generator: Adobe Illustrator 16.0.0, SVG Export Plug-In . SVG Version: 6.00 Build 0)  -->
<!DOCTYPE svg PUBLIC "-//W3C//DTD SVG 1.1//EN" "http://www.w3.org/Graphics/SVG/1.1/DTD/svg11.dtd">
<svg version="1.1" id="Capa_1" xmlns="http://www.w3.org/2000/svg" xmlns:xlink="http://www.w3.org/1999/xlink" x="0px" y="0px"
	 width="200px" height="200px" viewBox="0 0 200 200" enable-background="new 0 0 200 200" xml:space="preserve">
<g>
	<g>
		<g>
			<polygon points="132.757,72.506 118.892,71.997 115.885,154.087 129.75,154.594 			"/>
			<rect x="92.063" y="72.251" width="13.875" height="82.089"/>
			<polygon points="82.113,154.084 79.106,71.995 65.242,72.503 68.248,154.594 			"/>
			<path d="M16.448,38.028v13.874h14.457l11.469,130.332c0.314,3.582,3.314,6.33,6.91,6.33h99.199c3.596,0,6.598-2.75,6.911-6.331
				l11.468-130.331h14.69V38.028H16.448z M142.128,174.689H55.636L44.833,51.902h108.102L142.128,174.689z"/>
		</g>
	</g>
</g>
<g>
	<g>
		<path d="M121.662,11.436H76.338c-6.375,0-11.562,5.188-11.562,11.562v21.968h13.874V25.31h40.699v19.655h13.875V22.997
			C133.225,16.623,128.037,11.436,121.662,11.436z"/>
	</g>
</g>
</svg>
