<?xml version="1.0" encoding="utf-8"?>
<!-- Generator: Adobe Illustrator 16.0.0, SVG Export Plug-In . SVG Version: 6.00 Build 0)  -->
<!DOCTYPE svg PUBLIC "-//W3C//DTD SVG 1.1//EN" "http://www.w3.org/Graphics/SVG/1.1/DTD/svg11.dtd">
<svg version="1.1" id="Capa_1" xmlns="http://www.w3.org/2000/svg" xmlns:xlink="http://www.w3.org/1999/xlink" x="0px" y="0px"
	 width="200px" height="200px" viewBox="0 0 200 200" enable-background="new 0 0 200 200" xml:space="preserve">
<g>
	<g>
		<g>
			<path d="M141.679,184.51H39.123c-3.498,0-6.233,2.899-6.233,6.245c0,3.357,2.876,6.245,6.233,6.245h102.71
				c3.509,0,6.244-2.888,6.244-6.245C148.077,187.409,145.178,184.51,141.679,184.51z"/>
			<path d="M32.89,129.224l-0.165,29.697c0,1.667,0.61,3.357,1.831,4.578c1.209,1.221,2.747,1.831,4.414,1.831l29.557-0.165
				c1.679,0,3.193-0.609,4.425-1.818l102.063-102.07c2.418-2.436,2.418-6.397,0-8.991l-29.251-29.551
				c-2.441-2.436-6.409-2.436-8.992,0L116.349,43.3l-81.651,81.498C33.642,126.019,32.89,127.533,32.89,129.224L32.89,129.224z
				 M141.339,36.14l20.577,20.565l-11.585,11.574l-20.565-20.56L141.339,36.14z M45.521,131.958l75.253-75.253l20.565,20.565
				l-75.242,75.101l-20.729,0.164L45.521,131.958L45.521,131.958z"/>
		</g>
	</g>
</g>
</svg>
