<?xml version="1.0" encoding="utf-8"?>
<!-- Generator: Adobe Illustrator 16.0.0, SVG Export Plug-In . SVG Version: 6.00 Build 0)  -->
<!DOCTYPE svg PUBLIC "-//W3C//DTD SVG 1.1//EN" "http://www.w3.org/Graphics/SVG/1.1/DTD/svg11.dtd">
<svg version="1.1" id="Layer_1" xmlns="http://www.w3.org/2000/svg" xmlns:xlink="http://www.w3.org/1999/xlink" x="0px" y="0px"
	 width="100px" height="100px" viewBox="0 0 100 100" enable-background="new 0 0 100 100" xml:space="preserve">
<g>
	<g id="_x39__40_">
		<g>
			<path d="M49.619,56.417c-1.486,0-2.692,1.207-2.692,2.693v10.771c0,1.485,1.207,2.691,2.692,2.691
				c1.486,0,2.692-1.206,2.692-2.691V59.11C52.312,57.624,51.105,56.417,49.619,56.417z M71.16,45.695V32.375
				c0-11.896-9.645-21.541-21.541-21.541c-11.896,0-21.541,9.645-21.541,21.541v13.321c-3.366,4.497-5.385,10.06-5.385,16.107
				c0,14.871,12.055,26.926,26.926,26.926c14.872,0,26.927-12.055,26.927-26.926C76.546,55.755,74.526,50.192,71.16,45.695z
				 M33.463,32.375c0-8.923,7.233-16.156,16.156-16.156c8.924,0,16.156,7.232,16.156,16.156v7.925
				c-4.505-3.39-10.087-5.423-16.156-5.423c-6.069,0-11.65,2.033-16.156,5.423V32.375z M49.619,83.343
				c-11.896,0-21.541-9.645-21.541-21.54c0-11.896,9.645-21.541,21.541-21.541c11.492,0,21.541,10.049,21.541,21.541
				C71.16,73.698,61.516,83.343,49.619,83.343z"/>
		</g>
	</g>
</g>
</svg>
