<?xml version="1.0" encoding="utf-8"?>
<!-- Generator: Adobe Illustrator 16.0.0, SVG Export Plug-In . SVG Version: 6.00 Build 0)  -->
<!DOCTYPE svg PUBLIC "-//W3C//DTD SVG 1.1//EN" "http://www.w3.org/Graphics/SVG/1.1/DTD/svg11.dtd">
<svg version="1.1" id="Layer_1" xmlns="http://www.w3.org/2000/svg" xmlns:xlink="http://www.w3.org/1999/xlink" x="0px" y="0px"
	 width="100px" height="100px" viewBox="0 0 100 100" enable-background="new 0 0 100 100" xml:space="preserve">
<g>
	<g>
		<g>
			<path fill="#010002" d="M70.985,33.077c6.773,6.005,10.664,13.251,10.664,22.298c0,17.456-14.197,31.647-31.647,31.647
				c-17.456,0-31.646-14.191-31.646-31.647c0-8.449,3.292-16.399,9.27-22.376l-8.825-8.82C10.466,32.517,5.877,43.596,5.877,55.38
				c0,24.326,19.789,44.12,44.12,44.12c24.326,0,44.125-19.788,44.125-44.12c0-12.617-5.417-23.261-14.858-31.637L70.985,33.077z"/>
			<path fill="#010002" d="M56.34,54.889c0,3.645-3.31,6.594-7.403,6.594c-4.078,0-7.394-2.949-7.394-6.594V7.093
				c0.005-3.644,3.32-6.593,7.4-6.593c4.084,0,7.394,2.949,7.394,6.593v47.795H56.34z"/>
		</g>
	</g>
</g>
</svg>
