<?xml version="1.0" encoding="utf-8"?>
<!-- Generator: Adobe Illustrator 16.0.0, SVG Export Plug-In . SVG Version: 6.00 Build 0)  -->
<!DOCTYPE svg PUBLIC "-//W3C//DTD SVG 1.1//EN" "http://www.w3.org/Graphics/SVG/1.1/DTD/svg11.dtd">
<svg version="1.1" id="Layer_1" xmlns="http://www.w3.org/2000/svg" xmlns:xlink="http://www.w3.org/1999/xlink" x="0px" y="0px"
	 width="501px" height="280px" viewBox="0 0 501 280" enable-background="new 0 0 501 280" xml:space="preserve">
<path fill-rule="evenodd" clip-rule="evenodd" d="M7.655,203.049c7.936,0,15.845,0,23.872,0c0.108,0.284,0.27,0.627,0.37,0.985
	c0.968,3.461,3.296,5.574,6.677,6.487c5.051,1.364,10.154,1.473,15.22,0.08c5.195-1.429,8.537-4.829,10.012-9.983
	c1.817-6.356,1.465-12.886,1.456-19.722c-0.761,1.125-1.328,1.99-1.921,2.837c-4.077,5.817-9.739,8.912-16.715,9.856
	c-6.667,0.902-13.174,0.353-19.381-2.258c-9.174-3.857-14.97-10.94-18.448-20.068c-1.667-4.378-2.636-8.934-2.867-13.615
	c-0.163-3.297-0.371-6.613-0.195-9.901c0.588-10.996,3.652-21.149,10.834-29.757c4.751-5.693,10.856-9.057,18.164-10.238
	c5.008-0.811,10.023-0.885,14.961,0.386c6.506,1.675,11.238,5.757,14.811,11.314c0.275,0.429,0.547,0.86,0.832,1.282
	c0.029,0.044,0.143,0.03,0.362,0.069c0-3.849,0-7.674,0-11.556c7.144,0,14.14,0,21.282,0c0.02,0.403,0.058,0.815,0.058,1.229
	c0.003,26.593,0.003,53.186,0.003,79.777c0,5.436-0.51,10.81-2.017,16.052c-2.647,9.208-8.804,15.092-17.595,18.438
	c-4.043,1.539-8.23,2.565-12.542,2.836c-4.662,0.293-9.353,0.616-14.009,0.418c-7.956-0.34-15.604-2.087-22.419-6.496
	c-6.344-4.104-9.82-9.984-10.667-17.46C7.758,203.732,7.708,203.426,7.655,203.049z M65.801,151.071
	c-0.417-3.186-0.617-6.418-1.293-9.548c-1.896-8.785-8.212-15.751-19.056-15.106c-6.732,0.4-11.624,3.668-14.195,9.833
	c-3.704,8.88-3.99,18.045-0.894,27.159c2.403,7.077,7.193,11.398,14.969,12.073c7.567,0.656,14.534-3.428,17.583-10.008
	C65.025,160.918,65.524,156.057,65.801,151.071z"/>
<path fill-rule="evenodd" clip-rule="evenodd" d="M435.623,157.422c-19.312,0-38.488,0-57.895,0
	c0.174,1.585,0.283,3.089,0.514,4.573c0.692,4.479,2.217,8.588,5.604,11.776c3.124,2.941,6.881,4.401,11.149,4.708
	c3.22,0.23,6.333-0.063,9.3-1.387c3.349-1.494,5.643-4.068,7.3-7.265c0.292-0.562,0.581-0.909,1.317-0.906
	c6.934,0.032,13.867,0.019,20.8,0.022c0.229,0,0.458,0.039,1.003,0.089c-0.557,1.842-0.885,3.664-1.635,5.292
	c-4.933,10.699-13.038,17.697-24.516,20.636c-4.67,1.195-9.443,1.627-14.242,1.396c-10.674-0.515-20.023-4.359-27.814-11.693
	c-5.02-4.726-7.74-10.784-9.281-17.414c-1.061-4.565-1.441-9.199-1.504-13.885c-0.09-6.817,0.441-13.546,2.602-20.048
	c4.643-13.962,14.081-22.701,28.592-25.533c8.916-1.74,17.738-1.037,26.211,2.449c8.846,3.642,14.668,10.326,18.52,18.875
	c2.061,4.57,3.299,9.386,3.565,14.402c0.233,4.394,0.316,8.795,0.462,13.193C435.68,156.892,435.648,157.081,435.623,157.422z
	 M412.822,142.92c-0.103-0.852-0.195-1.585-0.278-2.319c-1.079-9.472-7.608-14.757-14.884-15.423
	c-7.796-0.713-13.442,2.258-16.645,8.696c-1.408,2.834-2.268,5.817-2.595,9.046C389.886,142.92,401.249,142.92,412.822,142.92z"/>
<path fill-rule="evenodd" clip-rule="evenodd" d="M224.764,157.395c-0.837,0-1.307,0-1.775,0c-18.199,0-36.398,0-54.598,0
	c-1.695,0-1.621-0.004-1.536,1.716c0.145,2.927,0.733,5.745,1.793,8.468c2.509,6.446,8.517,10.596,15.432,10.918
	c3.728,0.174,7.268-0.235,10.532-2.129c2.67-1.549,4.535-3.849,5.904-6.572c0.291-0.578,0.617-0.877,1.338-0.873
	c6.934,0.031,13.866,0.02,20.799,0.021c0.193,0.001,0.387,0.027,0.795,0.058c-0.152,0.83-0.244,1.62-0.442,2.383
	c-1.544,5.951-5.113,10.643-9.413,14.831c-5.497,5.356-12.186,8.369-19.721,9.435c-3.291,0.466-6.648,0.756-9.965,0.682
	c-9.594-0.213-18.179-3.37-25.768-9.289c-6.895-5.378-10.48-12.636-12.261-20.982c-1.339-6.278-1.482-12.644-1.128-19
	c0.367-6.563,1.627-12.98,4.523-18.963c5.135-10.605,13.471-17.429,24.916-20.002c10.119-2.275,20.135-1.531,29.662,2.958
	c6.804,3.206,11.636,8.47,15.207,14.966c2.951,5.364,4.631,11.138,5.047,17.238C224.424,147.909,224.547,152.575,224.764,157.395z
	 M201.781,142.92c-0.211-1.442-0.35-2.766-0.603-4.067c-2.074-10.646-11.139-15.088-20.233-13.497
	c-5.838,1.021-9.424,4.686-11.656,9.912c-1.031,2.416-1.706,4.941-1.948,7.652C178.803,142.92,190.165,142.92,201.781,142.92z"/>
<path fill-rule="evenodd" clip-rule="evenodd" d="M314.789,193.563c0.393-2.354,0.751-4.585,1.141-6.811
	c0.992-5.663,1.999-11.323,2.996-16.985c1.066-6.047,2.172-12.088,3.176-18.146c0.817-4.939,1.814-9.877,2.182-14.855
	c0.477-6.472-2.656-10.464-9.238-11.188c-5.797-0.638-11.182,0.547-15.653,4.617c-3.544,3.225-5.747,7.293-6.927,11.841
	c-1.09,4.194-1.838,8.48-2.628,12.746c-1.126,6.076-2.152,12.171-3.22,18.258c-0.98,5.587-1.962,11.175-2.938,16.763
	c-0.175,1.002-0.28,2.019-0.526,3.001c-0.076,0.3-0.518,0.725-0.793,0.726c-6.97,0.026-13.94,0.004-20.911-0.012
	c-0.036,0-0.071-0.032-0.188-0.087c4.905-27.965,9.814-55.954,14.733-83.999c7.039,0,14.034,0,21.09,0
	c-0.687,3.935-1.362,7.815-2.039,11.695c0.061,0.053,0.121,0.104,0.182,0.157c0.243-0.243,0.502-0.472,0.726-0.731
	c3.217-3.748,6.617-7.288,11.029-9.671c5.697-3.078,11.833-3.923,18.215-3.616c5.723,0.275,11.064,1.622,15.75,5.098
	c3.703,2.746,5.742,6.453,6.55,10.924c0.896,4.952,0.284,9.84-0.578,14.721c-0.987,5.584-1.976,11.167-2.954,16.753
	c-0.986,5.626-1.96,11.255-2.943,16.882c-1.07,6.126-2.145,12.251-3.221,18.376c-0.04,0.23-0.117,0.453-0.164,0.682
	c-0.188,0.915-0.074,2.223-0.631,2.644c-0.64,0.482-1.872,0.212-2.848,0.214c-5.987,0.01-11.975,0.005-17.963,0.005
	C315.77,193.563,315.344,193.563,314.789,193.563z"/>
<path fill-rule="evenodd" clip-rule="evenodd" d="M445.498,109.226c6.989,0,13.875,0,20.893,0c0,4.736,0,9.437,0,14.137
	c0.094,0.042,0.188,0.083,0.281,0.124c0.282-0.375,0.589-0.733,0.842-1.127c2.251-3.514,4.531-7.007,7.707-9.787
	c3.256-2.849,7.099-4.475,11.352-5.004c2.556-0.317,5.154-0.293,7.889-0.43c-0.396,3.249-0.697,6.241-1.139,9.212
	c-0.557,3.753-1.206,7.492-1.857,11.23c-0.336,1.917-0.378,1.947-2.272,1.898c-3.438-0.087-6.832,0.178-10.102,1.297
	c-5.871,2.01-9.409,6.153-10.497,12.205c-0.58,3.226-0.922,6.536-0.947,9.812c-0.105,13.076-0.044,26.154-0.044,39.231
	c0,0.466,0,0.931,0,1.466c-7.403,0-14.711,0-22.104,0C445.498,165.436,445.498,137.379,445.498,109.226z"/>
<path fill-rule="evenodd" clip-rule="evenodd" d="M96.749,109.231c6.933,0,13.774,0,20.796,0c0,4.727,0,9.413,0,14.1
	c0.104,0.031,0.209,0.063,0.314,0.095c0.209-0.297,0.428-0.586,0.625-0.891c2.119-3.27,4.247-6.526,7.075-9.259
	c3.368-3.253,7.437-5.084,12.012-5.698c2.593-0.349,5.239-0.304,8.026-0.444c-0.523,3.985-0.971,7.733-1.52,11.466
	c-0.454,3.097-1.059,6.17-1.535,9.264c-0.194,1.268-0.723,1.741-2.08,1.659c-3.305-0.198-6.58,0.102-9.768,1.101
	c-6.213,1.947-9.93,6.183-11.035,12.523c-0.596,3.421-0.915,6.93-0.944,10.402c-0.108,12.799-0.043,25.601-0.043,38.401
	c0,0.472,0,0.943,0,1.514c-7.304,0-14.563,0-21.924,0C96.749,165.442,96.749,137.39,96.749,109.231z"/>
<path fill-rule="evenodd" clip-rule="evenodd" fill="#F39200" d="M296.682,9.688c-0.218,3.915-1.117,7.061-2.592,9.997
	c-7.669,15.272-15.256,30.589-23.166,45.735c-4.078,7.808-8.731,15.316-13.204,22.914c-1.686,2.863-3.389,3.538-6.447,2.255
	c-2.887-1.212-5.654-2.767-8.337-4.396c-10.125-6.151-20.172-12.431-30.295-18.585c-3.479-2.115-6.32-4.683-7.494-8.722
	c-0.515-1.773-0.614-3.557,0.008-5.341c0.626-1.796,1.945-2.76,3.768-2.625c2.26,0.169,4.545,0.457,6.738,1.011
	c10.992,2.771,21.958,5.644,32.933,8.485c2.688,0.695,2.111,0.604,3.465-1.199c10.907-14.539,21.79-29.096,32.685-43.645
	c2.264-3.022,4.526-6.045,6.822-9.042c1.614-2.105,3.289-1.945,4.346,0.456C296.357,8.005,296.531,9.142,296.682,9.688z"/>
<path fill-rule="evenodd" clip-rule="evenodd" d="M264.212,109.237c-4.954,28.086-9.9,56.134-14.859,84.251
	c-7.404,0-14.791,0-22.294,0c4.953-28.093,9.9-56.154,14.855-84.251C249.344,109.237,256.701,109.237,264.212,109.237z"/>
<path fill-rule="evenodd" clip-rule="evenodd" d="M209.203,264.291c0,1.69,0.023,3.262-0.022,4.831
	c-0.008,0.266-0.268,0.694-0.491,0.756c-2.359,0.644-4.742,0.991-7.172,0.343c-2.797-0.747-4-2.824-4.572-5.438
	c-0.083-0.38-0.178-0.758-0.311-1.318c-1.915,2.319-4.166,3.994-6.707,5.278c-4.93,2.491-10.101,3.211-15.4,1.582
	c-5.986-1.84-9.434-7.109-9.338-13.352c0.118-7.702,5.006-11.647,11.211-13.211c3.135-0.789,6.412-1.018,9.629-1.478
	c2.324-0.331,4.668-0.55,6.979-0.959c2.233-0.395,3.34-1.814,3.451-4.109c0.233-4.772-1.739-7.233-6.518-8.231
	c-2.65-0.554-5.312-0.673-7.95-0.121c-4.419,0.925-6.495,3.403-7.159,8.354c-2.337,0-4.685,0-7.174,0
	c-0.021-2.398,0.408-4.693,1.334-6.914c1.684-4.034,5.053-6.028,8.969-7.177c6.96-2.04,13.811-1.703,20.34,1.645
	c3.863,1.981,5.651,5.374,5.683,9.622c0.065,8.94,0.042,17.883,0.004,26.824c-0.009,2.079,0.476,3.508,3.558,3.083
	C208.042,264.231,208.557,264.291,209.203,264.291z M196.029,246.27c-1.389,0.463-2.801,1.115-4.281,1.391
	c-3.54,0.658-7.122,1.086-10.67,1.708c-2.303,0.404-4.538,1.11-6.115,2.997c-3.602,4.31-1.257,10.716,4.4,11.872
	c4.293,0.878,8.264-0.247,11.928-2.488c2.566-1.57,4.406-3.829,4.682-6.866C196.234,252.008,196.029,249.091,196.029,246.27z"/>
<path fill-rule="evenodd" clip-rule="evenodd" d="M422.423,255.049c-1.627,8.042-7.835,14.928-17.331,15.862
	c-4.67,0.46-9.176,0.208-13.363-2.106c-5.021-2.774-8.408-6.923-9.927-12.467c-1.883-6.872-1.876-13.763,0.703-20.452
	c2.802-7.268,7.904-12.057,15.745-13.586c8.748-1.707,18.828,2.484,22.352,10.43c1.172,2.645,1.852,5.403,2.072,8.269
	c0.19,2.495,0.263,4.999,0.395,7.638c-11.494,0-22.775,0-34.031,0c-1.207,6.421,3.324,14.098,9.234,15.457
	c7.156,1.646,13.617-1.055,16.4-8.302c0.114-0.296,0.469-0.704,0.72-0.71C417.71,255.026,420.03,255.049,422.423,255.049z
	 M415.045,242.446c-0.359-8.674-4.82-13.719-12.618-13.904c-8.778-0.208-13.686,7.873-13.282,13.904
	C397.775,242.446,406.408,242.446,415.045,242.446z"/>
<path fill-rule="evenodd" clip-rule="evenodd" d="M211.387,255.06c2.539,0,4.962,0,7.412,0c0.332,2.589,0.935,4.999,2.977,6.766
	c1.89,1.636,4.177,2.29,6.581,2.555c3.731,0.41,7.373,0.133,10.709-1.818c2.538-1.484,3.678-4.164,3.034-7.045
	c-0.418-1.867-1.645-3.08-3.382-3.616c-3.542-1.093-7.14-2.003-10.696-3.05c-2.697-0.793-5.428-1.528-8.037-2.557
	c-9.012-3.55-8.495-12.742-4.562-18.132c2.357-3.231,5.679-5.002,9.543-5.795c4.981-1.022,9.935-0.908,14.671,1.027
	c5.169,2.112,8.221,5.998,8.85,11.641c0.031,0.272,0.013,0.552,0.003,0.826c-0.004,0.113-0.045,0.225-0.085,0.407
	c-2.303,0-4.609,0-6.971,0c-0.137-0.551-0.261-1.119-0.42-1.677c-0.773-2.699-2.502-4.507-5.176-5.338
	c-3.559-1.107-7.177-1.274-10.76-0.191c-3.327,1.006-4.992,3.753-4.283,6.821c0.367,1.589,1.334,2.853,2.785,3.466
	c2.253,0.952,4.59,1.734,6.938,2.433c3.857,1.146,7.786,2.06,11.624,3.263c8.354,2.62,9.259,10.494,6.868,16.396
	c-1.809,4.463-5.214,7.347-9.828,8.627c-5.434,1.507-10.935,1.479-16.406,0.118c-6.289-1.563-9.514-5.975-10.929-11.991
	C211.615,257.21,211.548,256.187,211.387,255.06z"/>
<path fill-rule="evenodd" clip-rule="evenodd" d="M254.65,255.063c2.477,0,4.902,0,7.379,0c0.151,0.803,0.262,1.61,0.457,2.396
	c0.774,3.11,2.7,5.189,5.752,6.146c4.453,1.396,8.886,1.384,13.189-0.569c3.241-1.473,4.677-4.317,3.925-7.562
	c-0.417-1.804-1.616-3.017-3.304-3.545c-3.539-1.104-7.139-2.016-10.693-3.071c-2.846-0.845-5.752-1.573-8.475-2.724
	c-8.658-3.659-8.026-12.564-4.312-17.822c2.356-3.336,5.746-5.163,9.702-5.959c4.941-0.993,9.856-0.889,14.561,1.021
	c5.221,2.119,8.309,6.011,8.909,11.714c0.04,0.377,0.005,0.761,0.005,1.197c-2.391,0-4.662,0-7.037,0
	c-0.204-0.742-0.375-1.534-0.639-2.294c-0.723-2.078-2.088-3.631-4.143-4.409c-3.968-1.505-8.023-1.724-12.065-0.32
	c-2.349,0.814-3.844,2.516-3.987,5.044c-0.133,2.329,1.008,4.221,3.108,5.114c2.534,1.078,5.218,1.816,7.863,2.617
	c3.776,1.143,7.636,2.042,11.354,3.345c5.935,2.08,7.812,7.097,6.987,12.474c-1.071,6.999-5.416,11.004-12.156,12.553
	c-4.896,1.126-9.831,1.03-14.703-0.12c-6.361-1.502-9.766-5.889-11.213-12.02C254.874,257.247,254.809,256.185,254.65,255.063z"/>
<path fill-rule="evenodd" clip-rule="evenodd" d="M315.763,255.029c2.567,0,4.884,0,7.294,0c0.13,0.685,0.246,1.367,0.39,2.044
	c0.714,3.384,2.762,5.63,6.03,6.609c4.207,1.261,8.438,1.293,12.561-0.426c2.702-1.127,4.455-3.005,4.554-6.118
	c0.079-2.511-1.069-4.305-3.341-5.145c-2.6-0.96-5.306-1.633-7.971-2.413c-3.564-1.044-7.195-1.903-10.686-3.154
	c-3.281-1.175-6.08-3.275-6.977-6.82c-1.298-5.127-0.066-9.741,3.898-13.397c3.035-2.8,6.762-3.96,10.83-4.291
	c4.125-0.337,8.15-0.038,11.975,1.62c5.092,2.209,7.849,6.201,8.592,11.646c0.046,0.339,0.006,0.69,0.006,1.097
	c-2.424,0-4.772,0-7.182,0c-0.457-2.445-1.246-4.784-3.562-6.047c-1.35-0.735-2.882-1.245-4.394-1.543
	c-2.793-0.552-5.634-0.533-8.37,0.365c-4.375,1.437-5.253,5.177-3.8,8.039c0.886,1.746,2.528,2.731,4.312,3.269
	c3.254,0.981,6.586,1.698,9.85,2.651c2.887,0.844,5.806,1.668,8.563,2.847c3.989,1.705,5.792,4.972,6.058,9.291
	c0.474,7.696-5.221,14.282-13.312,15.493c-4.71,0.705-9.36,0.667-14.014-0.455c-6.516-1.571-9.919-6.922-10.968-12.376
	C315.931,256.943,315.882,256.049,315.763,255.029z"/>
<path fill-rule="evenodd" clip-rule="evenodd" d="M467.941,238.425c-2.633,0-5.027,0-7.498,0c-0.206-0.792-0.376-1.622-0.639-2.421
	c-1.434-4.362-4.08-7.127-8.982-7.535c-5.009-0.417-9,1.337-11.425,5.734c-0.823,1.493-1.485,3.132-1.895,4.785
	c-1.409,5.688-1.612,11.405,0.327,17.028c1.268,3.675,3.327,6.758,7.383,7.758c6.877,1.695,12.195-0.997,14.596-8.442
	c0.226-0.697,0.4-1.411,0.604-2.132c2.467,0,4.896,0,7.668,0c-0.623,2.219-1.051,4.363-1.822,6.376
	c-2.633,6.877-7.918,10.218-15.047,11.075c-3.99,0.479-7.841,0.141-11.484-1.602c-5.018-2.397-8.152-6.531-9.883-11.644
	c-2.68-7.915-2.359-15.883,0.891-23.549c2.952-6.961,8.223-11.244,15.926-12.198c3.854-0.478,7.596-0.056,11.214,1.308
	c5.49,2.067,8.3,6.324,9.464,11.86C467.578,235.972,467.729,237.136,467.941,238.425z"/>
<path fill-rule="evenodd" clip-rule="evenodd" d="M362.631,209.937c2.703,0,5.176,0,7.755,0c0,4.275,0,8.512,0,12.893
	c2.556,0,5.012,0,7.542,0c0,2.172,0,4.2,0,6.367c-2.438,0-4.895,0-7.496,0c0,0.592,0,1.051,0,1.509
	c0,9.413,0.053,18.826-0.026,28.239c-0.032,3.947,1.766,4.401,4.522,4.549c0.973,0.053,1.951,0.009,3.074,0.009
	c0,1.752,0.018,3.631-0.023,5.51c-0.006,0.219-0.305,0.577-0.52,0.623c-3.258,0.694-6.537,0.937-9.771-0.042
	c-2.724-0.824-3.904-3.056-4.502-5.59c-0.347-1.474-0.486-3.027-0.494-4.546c-0.042-9.57-0.021-19.142-0.021-28.712
	c0-0.461,0-0.923,0-1.478c-2.074,0-4.028,0-6.074,0c0-2.147,0-4.203,0-6.354c1.979,0,3.934,0,6.035,0
	C362.631,218.557,362.631,214.292,362.631,209.937z"/>
<path fill-rule="evenodd" clip-rule="evenodd" d="M309.122,269.388c-2.523,0-4.95,0-7.443,0c0-15.398,0-30.736,0-46.255
	c1.231,0,2.476,0,3.718,0c1.216,0,2.431,0,3.726,0C309.122,238.572,309.122,253.938,309.122,269.388z"/>
<path fill-rule="evenodd" clip-rule="evenodd" d="M309.125,214.54c-2.529,0-4.957,0-7.449,0c0-2.882,0-5.7,0-8.62
	c2.461,0,4.914,0,7.449,0C309.125,208.759,309.125,211.609,309.125,214.54z"/>
</svg>
